{
  "atom-package": {
    "apm": {
      "args": "",
      "executable": "apm"
    }
  },
  "commands": {
    "clean": {
      "command": "${/atom-package/apm/executable} ${/atom-package/apm/args} clean"
    },
    "install": {
      "command": "${/atom-package/apm/executable} ${/atom-package/apm/args} install"
    },
    "test": {
      "command": "${/atom-package/apm/executable} ${/atom-package/apm/args} test"
    }
  }
}
