{
  "commands": {
    "build": {
      "command": "${/gradle/executable} ${/gradle/args} assemble"
    },
    "clean": {
      "command": "${/gradle/executable} ${/gradle/args} clean"
    },
    "test": {
      "command": "${/gradle/executable} ${/gradle/args} check"
    }
  },
  "gradle": {
    "args": "",
    "executable": "gradle"
  }
}
