{
  "commands": {
    "TAGS": {
      "command": "${/make/executable} ${/make/args} TAGS"
    },
    "all": {
      "command": "${/make/executable} ${/make/args} all"
    },
    "build": {
      "command": "${/make/executable} ${/make/args} all"
    },
    "check": {
      "command": "${/make/executable} ${/make/args} check"
    },
    "clean": {
      "command": "${/make/executable} ${/make/args} clean"
    },
    "clobber": {
      "command": "${/make/executable} ${/make/args} clobber"
    },
    "dist": {
      "command": "${/make/executable} ${/make/args} dist"
    },
    "distclean": {
      "command": "${/make/executable} ${/make/args} distclean"
    },
    "install": {
      "command": "${/make/executable} ${/make/args} install"
    },
    "mostlyclean": {
      "command": "${/make/executable} ${/make/args} mostlyclean"
    },
    "package": {
      "command": "${/commands/dist/command}"
    },
    "print": {
      "command": "${/make/executable} ${/make/args} print"
    },
    "realclean": {
      "command": "${/make/executable} ${/make/args} realclean"
    },
    "shar": {
      "command": "${/make/executable} ${/make/args} shar"
    },
    "tar": {
      "command": "${/make/executable} ${/make/args} tar"
    },
    "test": {
      "command": "${/commands/check/command}"
    }
  },
  "make": {
    "args": "",
    "executable": "make"
  }
}
