{
  "commands": {
    "build": {
      "command": "./Build ${/module-build/args/all} ${/module-build/args/build} build",
      "depends": [
        "configure"
      ]
    },
    "clean": {
      "command": "./Build ${/module-build/args/all} ${/module-build/args/clean} clean",
      "depends": [
        "configure"
      ]
    },
    "code": {
      "command": "./Build ${/module-build/args/all} ${/module-build/args/code} code",
      "depends": [
        "configure"
      ]
    },
    "config_data": {
      "command": "./Build ${/module-build/args/all} ${/module-build/args/config_data} config_data",
      "depends": [
        "configure"
      ]
    },
    "configure": {
      "command": "${/module-build/perl/executable} ${/module-build/perl/args} ${/module-build/configure/args} Build.PL"
    },
    "diff": {
      "command": "./Build ${/module-build/args/all} ${/module-build/args/diff} diff",
      "depends": [
        "configure"
      ]
    },
    "dist": {
      "command": "./Build ${/module-build/args/all} ${/module-build/args/dist} dist",
      "depends": [
        "configure"
      ]
    },
    "distcheck": {
      "command": "./Build ${/module-build/args/all} ${/module-build/args/distcheck} distcheck",
      "depends": [
        "configure"
      ]
    },
    "distclean": {
      "command": "./Build ${/module-build/args/all} ${/module-build/args/distclean} distclean",
      "depends": [
        "configure"
      ]
    },
    "distdir": {
      "command": "./Build ${/module-build/args/all} ${/module-build/args/distdir} distdir",
      "depends": [
        "configure"
      ]
    },
    "distinstall": {
      "command": "./Build ${/module-build/args/all} ${/module-build/args/distinstall} distinstall",
      "depends": [
        "configure"
      ]
    },
    "distmeta": {
      "command": "./Build ${/module-build/args/all} ${/module-build/args/distmeta} distmeta",
      "depends": [
        "configure"
      ]
    },
    "distsign": {
      "command": "./Build ${/module-build/args/all} ${/module-build/args/distsign} distsign",
      "depends": [
        "configure"
      ]
    },
    "disttest": {
      "command": "./Build ${/module-build/args/all} ${/module-build/args/disttest} disttest",
      "depends": [
        "configure"
      ]
    },
    "docs": {
      "command": "./Build ${/module-build/args/all} ${/module-build/args/docs} docs",
      "depends": [
        "configure"
      ]
    },
    "fakeinstall": {
      "command": "./Build ${/module-build/args/all} ${/module-build/args/fakeinstall} fakeinstall",
      "depends": [
        "configure"
      ]
    },
    "help": {
      "command": "./Build ${/module-build/args/all} ${/module-build/args/help} help",
      "depends": [
        "configure"
      ]
    },
    "html": {
      "command": "./Build ${/module-build/args/all} ${/module-build/args/html} html",
      "depends": [
        "configure"
      ]
    },
    "install": {
      "command": "./Build ${/module-build/args/all} ${/module-build/args/install} install",
      "depends": [
        "configure"
      ]
    },
    "installdeps": {
      "command": "./Build ${/module-build/args/all} ${/module-build/args/installdeps} installdeps",
      "depends": [
        "configure"
      ]
    },
    "manifest": {
      "command": "./Build ${/module-build/args/all} ${/module-build/args/manifest} manifest",
      "depends": [
        "configure"
      ]
    },
    "manifest_skip": {
      "command": "./Build ${/module-build/args/all} ${/module-build/args/manifest_skip} manifest_skip",
      "depends": [
        "configure"
      ]
    },
    "manpages": {
      "command": "./Build ${/module-build/args/all} ${/module-build/args/manpages} manpages",
      "depends": [
        "configure"
      ]
    },
    "package": {
      "command": "${/commands/dist/command}",
      "depends": [
        "configure"
      ]
    },
    "pardist": {
      "command": "./Build ${/module-build/args/all} ${/module-build/args/pardist} pardist",
      "depends": [
        "configure"
      ]
    },
    "ppd": {
      "command": "./Build ${/module-build/args/all} ${/module-build/args/ppd} ppd",
      "depends": [
        "configure"
      ]
    },
    "ppmdist": {
      "command": "./Build ${/module-build/args/all} ${/module-build/args/ppmdist} ppmdist",
      "depends": [
        "configure"
      ]
    },
    "prereq_data": {
      "command": "./Build ${/module-build/args/all} ${/module-build/args/prereq_data} prereq_data",
      "depends": [
        "configure"
      ]
    },
    "prereq_report": {
      "command": "./Build ${/module-build/args/all} ${/module-build/args/prereq_report} prereq_report",
      "depends": [
        "configure"
      ]
    },
    "pure_install": {
      "command": "./Build ${/module-build/args/all} ${/module-build/args/pure_install} pure_install",
      "depends": [
        "configure"
      ]
    },
    "realclean": {
      "command": "./Build ${/module-build/args/all} ${/module-build/args/realclean} realclean",
      "depends": [
        "configure"
      ]
    },
    "retest": {
      "command": "./Build ${/module-build/args/all} ${/module-build/args/retest} retest",
      "depends": [
        "configure"
      ]
    },
    "skipcheck": {
      "command": "./Build ${/module-build/args/all} ${/module-build/args/skipcheck} skipcheck",
      "depends": [
        "configure"
      ]
    },
    "test": {
      "command": "./Build ${/module-build/args/all} ${/module-build/args/test} test",
      "depends": [
        "configure"
      ]
    },
    "testall": {
      "command": "./Build ${/module-build/args/all} ${/module-build/args/testall} testall",
      "depends": [
        "configure"
      ]
    },
    "testcover": {
      "command": "./Build ${/module-build/args/all} ${/module-build/args/testcover} testcover",
      "depends": [
        "configure"
      ]
    },
    "testdb": {
      "command": "./Build ${/module-build/args/all} ${/module-build/args/testdb} testdb",
      "depends": [
        "configure"
      ]
    },
    "testpod": {
      "command": "./Build ${/module-build/args/all} ${/module-build/args/testpod} testpod",
      "depends": [
        "configure"
      ]
    },
    "testpodcoverage": {
      "command": "./Build ${/module-build/args/all} ${/module-build/args/testpodcoverage} testpodcoverage",
      "depends": [
        "configure"
      ]
    },
    "versioninstall": {
      "command": "./Build ${/module-build/args/all} ${/module-build/args/versioninstall} versioninstall",
      "depends": [
        "configure"
      ]
    }
  },
  "module-build": {
    "args": {
      "all": "",
      "build": "",
      "clean": "",
      "code": "",
      "config_data": "",
      "diff": "",
      "dist": "",
      "distcheck": "",
      "distclean": "",
      "distdir": "",
      "distinstall": "",
      "distmeta": "",
      "distsign": "",
      "disttest": "",
      "docs": "",
      "fakeinstall": "",
      "help": "",
      "html": "",
      "install": "",
      "installdeps": "",
      "manifest": "",
      "manifest_skip": "",
      "manpages": "",
      "pardist": "",
      "ppd": "",
      "ppmdist": "",
      "prereq_data": "",
      "prereq_report": "",
      "pure_install": "",
      "realclean": "",
      "retest": "",
      "skipcheck": "",
      "test": "",
      "testall": "",
      "testcover": "",
      "testdb": "",
      "testpod": "",
      "testpodcoverage": "",
      "versioninstall": ""
    },
    "configure": {
      "args": ""
    },
    "perl": {
      "args": "",
      "executable": "perl"
    }
  }
}
